4 Manipulación de datos ordenados I – Introducción a la Programación II
…
library(dplyr)

Volvé a cargar los datos de pingüinos (para un recordatorio, podés ir a Lectura de datos ordenados):

library(readr)
pinguinos <- read_csv("datos/pinguinos.csv")

4.1 Seleccionando columnas con select()

Para quedarse únicamente con las columnas de especie y largo del pico, usá select()

select(pinguinos, especie, largo_pico_mm)

# A tibble: 344 × 2
   especie largo_pico_mm
   <chr>           <dbl>
 1 Adelia           39.1
 2 Adelia           39.5
 3 Adelia           40.3
 4 Adelia           NA  
 5 Adelia           36.7
 6 Adelia           39.3
 7 Adelia           38.9
 8 Adelia           39.2
 9 Adelia           34.1
10 Adelia           42  
# ℹ 334 more rows

¿Dónde quedó este resultado? Si te fijás en la tabla pinguinos, su formato no cambió, sigue teniendo todas las columnas originales a pesar de nuestro select:

pinguinos

# A tibble: 344 × 8
   especie isla  largo_pico_mm alto_pico_mm largo_aleta_mm masa_corporal_g sexo 
   <chr>   <chr>         <dbl>        <dbl>          <dbl>           <dbl> <chr>
 1 Adelia  Torg…          39.1         18.7            181            3750 macho
 2 Adelia  Torg…          39.5         17.4            186            3800 hemb…
 3 Adelia  Torg…          40.3         18              195            3250 hemb…
 4 Adelia  Torg…          NA           NA               NA              NA <NA> 
 5 Adelia  Torg…          36.7         19.3            193            3450 hemb…
 6 Adelia  Torg…          39.3         20.6            190            3650 macho
 7 Adelia  Torg…          38.9         17.8            181            3625 hemb…
 8 Adelia  Torg…          39.2         19.6            195            4675 macho
 9 Adelia  Torg…          34.1         18.1            193            3475 <NA> 
10 Adelia  Torg…          42           20.2            190            4250 <NA> 
# ℹ 334 more rows
# ℹ 1 more variable: anio <dbl>

select() y el resto de las funciones de dplyr siempre generan una nueva tabla y nunca modifican la tabla original. Para guardar la tabla con las dos columnas especie e largo_pico_mm tenés que asignar el resultado a una nueva variable.

pinguinos_isla <- select(pinguinos, especie, largo_pico_mm)
pinguinos_isla

# A tibble: 344 × 2
   especie largo_pico_mm
   <chr>           <dbl>
 1 Adelia           39.1
 2 Adelia           39.5
 3 Adelia           40.3
 4 Adelia           NA  
 5 Adelia           36.7
 6 Adelia           39.3
 7 Adelia           38.9
 8 Adelia           39.2
 9 Adelia           34.1
10 Adelia           42  
# ℹ 334 more rows
…
Cómo funciona select()

4.2 Filtrando filas con filter()

Ahora podés usar filter() para quedarte con sólo unas filas. Por ejemplo, para quedarse con los pingüinos de la especie Adelia:

filter(pinguinos, especie == "Adelia")

# A tibble: 152 × 8
   especie isla  largo_pico_mm alto_pico_mm largo_aleta_mm masa_corporal_g sexo 
   <chr>   <chr>         <dbl>        <dbl>          <dbl>           <dbl> <chr>
 1 Adelia  Torg…          39.1         18.7            181            3750 macho
 2 Adelia  Torg…          39.5         17.4            186            3800 hemb…
 3 Adelia  Torg…          40.3         18              195            3250 hemb…
 4 Adelia  Torg…          NA           NA               NA              NA <NA> 
 5 Adelia  Torg…          36.7         19.3            193            3450 hemb…
 6 Adelia  Torg…          39.3         20.6            190            3650 macho
 7 Adelia  Torg…          38.9         17.8            181            3625 hemb…
 8 Adelia  Torg…          39.2         19.6            195            4675 macho
 9 Adelia  Torg…          34.1         18.1            193            3475 <NA> 
10 Adelia  Torg…          42           20.2            190            4250 <NA> 
# ℹ 142 more rows
# ℹ 1 more variable: anio <dbl>

La mayoría de los análisis consisten en varios pasos que van generando tablas intermedias (en el primer desafío usaste 4 pasos para calcular la proporción entre el largo de la aleta y del pico) La única tabla que te interesa es la última, por lo que ir asignando variables nuevas en cada paso intermedio es tedioso y poco práctico. Para eso se usa el operador ‘pipe’ (|>).

El operador ‘pipe’ (|>) agarra el resultado de una función y se lo pasa a la siguiente. Esto permite escribir el código como una cadena de funciones que van operando sobre el resultado de la anterior.

Las dos operaciones anteriores (seleccionar tres columnas y luego filtrar las filas correspondientes a Argentina) se pueden escribir uno después del otro y sin asignar los resultados intermedios a nuevas variables de esta forma:

pinguinos |> 
  filter(especie == "Adelia") |> 
  select(especie, largo_pico_mm)

# A tibble: 152 × 2
   especie largo_pico_mm
   <chr>           <dbl>
 1 Adelia           39.1
 2 Adelia           39.5
 3 Adelia           40.3
 4 Adelia           NA  
 5 Adelia           36.7
 6 Adelia           39.3
 7 Adelia           38.9
 8 Adelia           39.2
 9 Adelia           34.1
10 Adelia           42  
# ℹ 142 more rows
…
Resolvé los ejercicios propuestos de lectura (yapa!) y de filtros. En algunos casos tendrías que reemplazar los _____ con el código correspondiente. En otros casos el ejercicio te pedirá escribir el código desde cero.

El archivo tiene más ejercicios, pero no te adelantes. Vamos a ver esos temas a continuación.

4.3 Agrupando y reduciendo con group_by() |> summarise()

Si quisieramos responder ¿cuál es el largo promedio de la aleta para cada especie de pingüino? tenemos que usar un combo de funciones: group_by() |> summarise(). Es decir, primero agrupamos las filas de nuestro data.frame según la columna especie (esto genera 3 grupos) y luego calculamos el promedio de largo_aleta_mm para cada grupo.

Vamos paso a paso.

pinguinos |> 
  group_by(especie) 

# A tibble: 344 × 8
# Groups:   especie [3]
   especie isla  largo_pico_mm alto_pico_mm largo_aleta_mm masa_corporal_g sexo 
   <chr>   <chr>         <dbl>        <dbl>          <dbl>           <dbl> <chr>
 1 Adelia  Torg…          39.1         18.7            181            3750 macho
 2 Adelia  Torg…          39.5         17.4            186            3800 hemb…
 3 Adelia  Torg…          40.3         18              195            3250 hemb…
 4 Adelia  Torg…          NA           NA               NA              NA <NA> 
 5 Adelia  Torg…          36.7         19.3            193            3450 hemb…
 6 Adelia  Torg…          39.3         20.6            190            3650 macho
 7 Adelia  Torg…          38.9         17.8            181            3625 hemb…
 8 Adelia  Torg…          39.2         19.6            195            4675 macho
 9 Adelia  Torg…          34.1         18.1            193            3475 <NA> 
10 Adelia  Torg…          42           20.2            190            4250 <NA> 
# ℹ 334 more rows
# ℹ 1 more variable: anio <dbl>
…
4.4 Creando nuevas columnas con mutate()

Todo esto está bien para hacer cálculos con columnas previamente existentes, pero muchas veces tenés que crear nuevas columnas.

Podríamos querer expresar la masa corporal de los pingüinos en kilos en vez de gramos.

pinguinos |> 
  mutate(masa_corporal_kg = masa_corporal_g/100)

# A tibble: 344 × 9
   especie isla  largo_pico_mm alto_pico_mm largo_aleta_mm masa_corporal_g sexo 
   <chr>   <chr>         <dbl>        <dbl>          <dbl>           <dbl> <chr>
 1 Adelia  Torg…          39.1         18.7            181            3750 macho
 2 Adelia  Torg…          39.5         17.4            186            3800 hemb…
 3 Adelia  Torg…          40.3         18              195            3250 hemb…
 4 Adelia  Torg…          NA           NA               NA              NA <NA> 
 5 Adelia  Torg…          36.7         19.3            193            3450 hemb…
 6 Adelia  Torg…          39.3         20.6            190            3650 macho
 7 Adelia  Torg…          38.9         17.8            181            3625 hemb…
 8 Adelia  Torg…          39.2         19.6            195            4675 macho
 9 Adelia  Torg…          34.1         18.1            193            3475 <NA> 
10 Adelia  Torg…          42           20.2            190            4250 <NA> 
# ℹ 334 more rows
# ℹ 2 more variables: anio <dbl>, masa_corporal_kg <dbl>

Recordá que las funciones de dplyr nunca modifican la tabla original. mutate() devolvió una nueva tabla que es igual a la tabla pinguinos pero con la columna “masa_corporal_kg” agregada al final. Si no asignamos este resultado a una variable, no podremos usarlo luego.

La función mutate() además de permitir crear nuevas columnas, también permite modificar o actualizar columnas existentes. Para eso, solo es necesario asignarle el nombre de la columa que queremos modificar.

pinguinos |> 
  mutate(especie = toupper(especie))

# A tibble: 344 × 8
   especie isla  largo_pico_mm alto_pico_mm largo_aleta_mm masa_corporal_g sexo 
   <chr>   <chr>         <dbl>        <dbl>          <dbl>           <dbl> <chr>
 1 ADELIA  Torg…          39.1         18.7            181            3750 macho
 2 ADELIA  Torg…          39.5         17.4            186            3800 hemb…
 3 ADELIA  Torg…          40.3         18              195            3250 hemb…
 4 ADELIA  Torg…          NA           NA               NA              NA <NA> 
 5 ADELIA  Torg…          36.7         19.3            193            3450 hemb…
 6 ADELIA  Torg…          39.3         20.6            190            3650 macho
 7 ADELIA  Torg…          38.9         17.8            181            3625 hemb…
 8 ADELIA  Torg…          39.2         19.6            195            4675 macho
 9 ADELIA  Torg…          34.1         18.1            193            3475 <NA> 
10 ADELIA  Torg…          42           20.2            190            4250 <NA> 
# ℹ 334 more rows
# ℹ 1 more variable: anio <dbl>
…
